Inference for Regression
…
What values can \(r\) be?

t-test for correlation

Let \(\rho\) be the correlation. What is the null hypothesis? What is the alternative hypothesis?

Assuming conditions for the simple linear model hold, \[t = \frac{r \sqrt{n-2}}{\sqrt{1-r^2}}, \ df=n-2\]

Making sense of this:

Lets use the goldenrod data

Goldenrod

## # A tibble: 1,055 x 9
##    Gdiam03 Stdiam03 Wall03 Fate03 Gdiam04 Stdiam04 Wall04 Fate04 Fly04
##      <dbl>    <dbl>  <dbl> <chr>    <dbl>    <dbl>  <dbl> <chr>  <chr>
##  1    20.7     3.00   6.00 f         18.9     3.00  NA    e      n    
##  2    21.7     3.60   7.30 f         23.1     3.70   9.40 f      y    
##  3    20.5     3.50   7.80 f         19.4     3.90   6.60 b      n    
##  4    15.0     5.10  NA    e         21.8     3.00  10.0  f      y    
##  5    19.5     3.90   7.10 u         23.5     3.50   9.20 f      y    
##  6    18.1     4.70   7.10 b         22.6     3.50   7.80 f      y    
##  7    23.0     4.90   8.60 f         11.6     4.50   4.30 f      y    
##  8    26.5     4.80  10.5  f         25.2     4.50   9.60 b      n    
##  9    13.8     3.70  NA    e         26.5     6.90  11.3  b      n    
## 10    21.5     4.80  10.0  u         20.5     5.00  NA    e      n    
## # ... with 1,045 more rows
…
